digraph "itag2-20240515-1" {
s0 [label="s0"];
s1 [label="s1"];
s0 -> s0  [label="scan_req/Adv"];
s0 -> s1  [label="connection_req/BTLE|BTLE_DATA"];
s0 -> s0  [label="length_req/Empty"];
s0 -> s0  [label="length_rsp/Empty"];
s0 -> s0  [label="feature_rsp/Empty"];
s0 -> s0  [label="feature_req/Empty"];
s0 -> s0  [label="version_req/Empty"];
s0 -> s0  [label="mtu_req/Empty"];
s0 -> s0  [label="pairing_req/Empty"];
s1 -> s0  [label="scan_req/Adv"];
s1 -> s1  [label="connection_req/BTLE|BTLE_DATA"];
s1 -> s1  [label="length_req/BTLE|BTLE_CTRL|BTLE_DATA|LL_UNKNOWN_RSP"];
s1 -> s1  [label="length_rsp/BTLE|BTLE_CTRL|BTLE_DATA|LL_UNKNOWN_RSP"];
s1 -> s1  [label="feature_rsp/BTLE|BTLE_DATA"];
s1 -> s1  [label="feature_req/BTLE|BTLE_CTRL|BTLE_DATA|LL_FEATURE_RSP"];
s1 -> s1  [label="version_req/BTLE|BTLE_CTRL|BTLE_DATA|LL_VERSION_IND"];
s1 -> s1  [label="mtu_req/ATT_Exchange_MTU_Response|ATT_Hdr|BTLE|BTLE_DATA|L2CAP_Hdr"];
s1 -> s1  [label="pairing_req/BTLE|BTLE_DATA"];
__start0 [label="", shape=none];
__start0 -> s0  [label=""];
}
