digraph "pebble-suspend-20240508-1" {
s0 [label="s0"];
s1 [label="s1"];
s2 [label="s2"];
s3 [label="s3"];
s4 [label="s4"];
s5 [label="s5"];
s6 [label="s6"];
s7 [label="s7"];
s8 [label="s8"];
s0 -> s0  [label="scan_req/Adv"];
s0 -> s1  [label="connection_req/BTLE|BTLE_DATA"];
s0 -> s0  [label="length_req/Empty"];
s0 -> s0  [label="length_rsp/Empty"];
s0 -> s0  [label="feature_rsp/Empty"];
s0 -> s0  [label="feature_req/Empty"];
s0 -> s0  [label="version_req/Empty"];
s0 -> s0  [label="mtu_req/Empty"];
s0 -> s0  [label="pairing_req/Empty"];
s1 -> s0  [label="scan_req/Adv"];
s1 -> s1  [label="connection_req/BTLE|BTLE_DATA"];
s1 -> s1  [label="length_req/BTLE|BTLE_CTRL|BTLE_DATA|LL_UNKNOWN_RSP"];
s1 -> s1  [label="length_rsp/BTLE|BTLE_CTRL|BTLE_DATA|LL_UNKNOWN_RSP"];
s1 -> s1  [label="feature_rsp/BTLE|BTLE_CTRL|BTLE_DATA|LL_UNKNOWN_RSP"];
s1 -> s1  [label="feature_req/BTLE|BTLE_CTRL|BTLE_DATA|LL_FEATURE_RSP"];
s1 -> s2  [label="version_req/BTLE|BTLE_CTRL|BTLE_DATA|LL_VERSION_IND"];
s1 -> s3  [label="mtu_req/ATT_Exchange_MTU_Response|ATT_Hdr|BTLE|BTLE_DATA|L2CAP_Hdr"];
s1 -> s4  [label="pairing_req/BTLE|BTLE_DATA|L2CAP_Hdr|SM_Hdr|SM_Pairing_Response"];
s2 -> s0  [label="scan_req/Adv"];
s2 -> s1  [label="connection_req/BTLE|BTLE_DATA"];
s2 -> s2  [label="length_req/BTLE|BTLE_CTRL|BTLE_DATA|LL_UNKNOWN_RSP"];
s2 -> s2  [label="length_rsp/BTLE|BTLE_CTRL|BTLE_DATA|LL_UNKNOWN_RSP"];
s2 -> s2  [label="feature_rsp/BTLE|BTLE_CTRL|BTLE_DATA|LL_UNKNOWN_RSP"];
s2 -> s2  [label="feature_req/BTLE|BTLE_CTRL|BTLE_DATA|LL_FEATURE_RSP"];
s2 -> s2  [label="version_req/BTLE|BTLE_DATA"];
s2 -> s5  [label="mtu_req/ATT_Exchange_MTU_Response|ATT_Hdr|BTLE|BTLE_DATA|L2CAP_Hdr"];
s2 -> s6  [label="pairing_req/BTLE|BTLE_DATA|L2CAP_Hdr|SM_Hdr|SM_Pairing_Response"];
s3 -> s0  [label="scan_req/Adv"];
s3 -> s1  [label="connection_req/BTLE|BTLE_DATA"];
s3 -> s3  [label="length_req/BTLE|BTLE_CTRL|BTLE_DATA|LL_UNKNOWN_RSP"];
s3 -> s3  [label="length_rsp/BTLE|BTLE_CTRL|BTLE_DATA|LL_UNKNOWN_RSP"];
s3 -> s3  [label="feature_rsp/BTLE|BTLE_CTRL|BTLE_DATA|LL_UNKNOWN_RSP"];
s3 -> s3  [label="feature_req/BTLE|BTLE_CTRL|BTLE_DATA|LL_FEATURE_RSP"];
s3 -> s5  [label="version_req/BTLE|BTLE_CTRL|BTLE_DATA|LL_VERSION_IND"];
s3 -> s3  [label="mtu_req/ATT_Error_Response|ATT_Hdr|BTLE|BTLE_DATA|L2CAP_Hdr"];
s3 -> s7  [label="pairing_req/BTLE|BTLE_DATA|L2CAP_Hdr|SM_Hdr|SM_Pairing_Response"];
s4 -> s0  [label="scan_req/Adv"];
s4 -> s1  [label="connection_req/BTLE|BTLE_DATA"];
s4 -> s4  [label="length_req/BTLE|BTLE_CTRL|BTLE_DATA|LL_UNKNOWN_RSP"];
s4 -> s4  [label="length_rsp/BTLE|BTLE_CTRL|BTLE_DATA|LL_UNKNOWN_RSP"];
s4 -> s4  [label="feature_rsp/BTLE|BTLE_CTRL|BTLE_DATA|LL_UNKNOWN_RSP"];
s4 -> s4  [label="feature_req/BTLE|BTLE_CTRL|BTLE_DATA|LL_FEATURE_RSP"];
s4 -> s6  [label="version_req/BTLE|BTLE_CTRL|BTLE_DATA|LL_VERSION_IND"];
s4 -> s7  [label="mtu_req/ATT_Exchange_MTU_Response|ATT_Hdr|BTLE|BTLE_DATA|L2CAP_Hdr"];
s4 -> s0  [label="pairing_req/Empty"];
s5 -> s0  [label="scan_req/Adv"];
s5 -> s1  [label="connection_req/BTLE|BTLE_DATA"];
s5 -> s5  [label="length_req/BTLE|BTLE_CTRL|BTLE_DATA|LL_UNKNOWN_RSP"];
s5 -> s5  [label="length_rsp/BTLE|BTLE_CTRL|BTLE_DATA|LL_UNKNOWN_RSP"];
s5 -> s5  [label="feature_rsp/BTLE|BTLE_CTRL|BTLE_DATA|LL_UNKNOWN_RSP"];
s5 -> s5  [label="feature_req/BTLE|BTLE_CTRL|BTLE_DATA|LL_FEATURE_RSP"];
s5 -> s5  [label="version_req/BTLE|BTLE_DATA"];
s5 -> s5  [label="mtu_req/ATT_Error_Response|ATT_Hdr|BTLE|BTLE_DATA|L2CAP_Hdr"];
s5 -> s8  [label="pairing_req/BTLE|BTLE_DATA|L2CAP_Hdr|SM_Hdr|SM_Pairing_Response"];
s6 -> s0  [label="scan_req/Adv"];
s6 -> s1  [label="connection_req/BTLE|BTLE_DATA"];
s6 -> s6  [label="length_req/BTLE|BTLE_CTRL|BTLE_DATA|LL_UNKNOWN_RSP"];
s6 -> s6  [label="length_rsp/BTLE|BTLE_CTRL|BTLE_DATA|LL_UNKNOWN_RSP"];
s6 -> s6  [label="feature_rsp/BTLE|BTLE_CTRL|BTLE_DATA|LL_UNKNOWN_RSP"];
s6 -> s6  [label="feature_req/BTLE|BTLE_CTRL|BTLE_DATA|LL_FEATURE_RSP"];
s6 -> s6  [label="version_req/BTLE|BTLE_DATA"];
s6 -> s8  [label="mtu_req/ATT_Exchange_MTU_Response|ATT_Hdr|BTLE|BTLE_DATA|L2CAP_Hdr"];
s6 -> s0  [label="pairing_req/Empty"];
s7 -> s0  [label="scan_req/Adv"];
s7 -> s1  [label="connection_req/BTLE|BTLE_DATA"];
s7 -> s7  [label="length_req/BTLE|BTLE_CTRL|BTLE_DATA|LL_UNKNOWN_RSP"];
s7 -> s7  [label="length_rsp/BTLE|BTLE_CTRL|BTLE_DATA|LL_UNKNOWN_RSP"];
s7 -> s7  [label="feature_rsp/BTLE|BTLE_CTRL|BTLE_DATA|LL_UNKNOWN_RSP"];
s7 -> s7  [label="feature_req/BTLE|BTLE_CTRL|BTLE_DATA|LL_FEATURE_RSP"];
s7 -> s8  [label="version_req/BTLE|BTLE_CTRL|BTLE_DATA|LL_VERSION_IND"];
s7 -> s7  [label="mtu_req/ATT_Error_Response|ATT_Hdr|BTLE|BTLE_DATA|L2CAP_Hdr"];
s7 -> s0  [label="pairing_req/Empty"];
s8 -> s0  [label="scan_req/Adv"];
s8 -> s1  [label="connection_req/BTLE|BTLE_DATA"];
s8 -> s8  [label="length_req/BTLE|BTLE_CTRL|BTLE_DATA|LL_UNKNOWN_RSP"];
s8 -> s8  [label="length_rsp/BTLE|BTLE_CTRL|BTLE_DATA|LL_UNKNOWN_RSP"];
s8 -> s8  [label="feature_rsp/BTLE|BTLE_CTRL|BTLE_DATA|LL_UNKNOWN_RSP"];
s8 -> s8  [label="feature_req/BTLE|BTLE_CTRL|BTLE_DATA|LL_FEATURE_RSP"];
s8 -> s8  [label="version_req/BTLE|BTLE_DATA"];
s8 -> s8  [label="mtu_req/ATT_Error_Response|ATT_Hdr|BTLE|BTLE_DATA|L2CAP_Hdr"];
s8 -> s0  [label="pairing_req/Empty"];
__start0 [label="", shape=none];
__start0 -> s0  [label=""];
}
